…
    word_vectors %>% 
      w2v_cosine_similarity("r")

    # A tibble: 3,184 x 2
       word         r
       <chr>    <dbl>
     1 r        1.000
     2 python   0.851
     3 sas      0.742
     4 use      0.629
     5 code     0.616
     6 learn    0.608
     7 spss     0.590
     8 learning 0.577
     9 language 0.574
    10 using    0.559
    # … with 3,174 more rows

    word_vectors %>% 
      w2v_cosine_similarity("bayesian")

    # A tibble: 3,184 x 2
       word        bayesian
       <chr>          <dbl>
     1 bayesian       1.   
     2 frequentist    0.782
     3 inference      0.622
     4 approach       0.617
     5 methods        0.595
     6 statistics     0.552
     7 using          0.509
     8 probability    0.475
     9 think          0.470
    10 models         0.459
    # … with 3,174 more rows
…
